/Users/joshbeck/NetBeansProjects/Milestone/src/main/java/web/SensorReading.java
/Users/joshbeck/NetBeansProjects/Milestone/src/main/java/Logging/Interceptor.java
/Users/joshbeck/NetBeansProjects/Milestone/src/main/java/cst361/milestone/JAXRSConfiguration.java
/Users/joshbeck/NetBeansProjects/Milestone/src/main/java/web/service/AbstractFacade.java
/Users/joshbeck/NetBeansProjects/Milestone/src/main/java/database/User.java
/Users/joshbeck/NetBeansProjects/Milestone/src/main/java/web/Users.java
/Users/joshbeck/NetBeansProjects/Milestone/src/main/java/external/Sensor.java
/Users/joshbeck/NetBeansProjects/Milestone/src/main/java/database/SensorListener.java
/Users/joshbeck/NetBeansProjects/Milestone/src/main/java/external/SensorDriver.java
/Users/joshbeck/NetBeansProjects/Milestone/src/main/java/models/PersonDataPacket.java
/Users/joshbeck/NetBeansProjects/Milestone/src/main/java/cst361/milestone/resources/JavaEE8Resource.java
/Users/joshbeck/NetBeansProjects/Milestone/src/main/java/controllers/DisplayController.java
/Users/joshbeck/NetBeansProjects/Milestone/src/main/java/web/service/UsersFacadeREST.java
/Users/joshbeck/NetBeansProjects/Milestone/src/main/java/Logging/ProjectLog.java
/Users/joshbeck/NetBeansProjects/Milestone/src/main/java/web/service/SensorReadingFacadeREST.java
/Users/joshbeck/NetBeansProjects/Milestone/src/main/java/database/PersonHandler.java
